\relax 
\providecommand\hyper@newdestlabel[2]{}
\providecommand\HyperFirstAtBeginDocument{\AtBeginDocument}
\HyperFirstAtBeginDocument{\ifx\hyper@anchor\@undefined
\global\let\oldcontentsline\contentsline
\gdef\contentsline#1#2#3#4{\oldcontentsline{#1}{#2}{#3}}
\global\let\oldnewlabel\newlabel
\gdef\newlabel#1#2{\newlabelxx{#1}#2}
\gdef\newlabelxx#1#2#3#4#5#6{\oldnewlabel{#1}{{#2}{#3}}}
\AtEndDocument{\ifx\hyper@anchor\@undefined
\let\contentsline\oldcontentsline
\let\newlabel\oldnewlabel
\fi}
\fi}
\global\let\hyper@last\relax 
\gdef\HyperFirstAtBeginDocument#1{#1}
\providecommand\HyField@AuxAddToFields[1]{}
\providecommand\HyField@AuxAddToCoFields[2]{}
\citation{Marbey2021}
\citation{Stevens1952}
\citation{Marbey2021}
\@writefile{toc}{\contentsline {section}{\numberline {1}Introduction}{3}{section.1}\protected@file@percent }
\@writefile{toc}{\contentsline {section}{\numberline {2}Theory}{3}{section.2}\protected@file@percent }
\newlabel{fullH}{{1}{3}{Theory}{equation.2.1}{}}
\citation{Mulak2000}
\newlabel{coupel}{{5}{4}{Theory}{equation.2.5}{}}
\newlabel{coupeln}{{8}{4}{Theory}{equation.2.8}{}}
\citation{Eden1998}
\@writefile{toc}{\contentsline {section}{\numberline {3}Program operation}{6}{section.3}\protected@file@percent }
\@writefile{toc}{\contentsline {section}{\numberline {4}Setup}{7}{section.4}\protected@file@percent }
\@writefile{toc}{\contentsline {subsection}{\numberline {4.1}Requirements}{7}{subsection.4.1}\protected@file@percent }
\@writefile{toc}{\contentsline {subsection}{\numberline {4.2}Installation}{7}{subsection.4.2}\protected@file@percent }
\@writefile{toc}{\contentsline {subsection}{\numberline {4.3}Updating}{7}{subsection.4.3}\protected@file@percent }
\@writefile{toc}{\contentsline {section}{\numberline {5}Usage Instructions}{9}{section.5}\protected@file@percent }
\@writefile{toc}{\contentsline {subsection}{\numberline {5.1}Required files}{9}{subsection.5.1}\protected@file@percent }
\@writefile{toc}{\contentsline {subsection}{\numberline {5.2}Input file}{10}{subsection.5.2}\protected@file@percent }
\@writefile{toc}{\contentsline {subsection}{\numberline {5.3}Running a simulation}{10}{subsection.5.3}\protected@file@percent }
\citation{Marbey2021}
\citation{Marbey2021}
\@writefile{toc}{\contentsline {subsection}{\numberline {5.4}Output files}{11}{subsection.5.4}\protected@file@percent }
\@writefile{toc}{\contentsline {subsection}{\numberline {5.5}Analysis tools}{11}{subsection.5.5}\protected@file@percent }
\citation{Marbey2021}
\citation{Marbey2021}
\@writefile{toc}{\contentsline {section}{\numberline {6}Example}{13}{section.6}\protected@file@percent }
\@writefile{toc}{\contentsline {section}{\numberline {A}Data file formats}{13}{appendix.A}\protected@file@percent }
\@writefile{toc}{\contentsline {subsection}{\numberline {A.1}CFP polynomials file}{13}{subsection.A.1}\protected@file@percent }
\bibstyle{rsc}
\bibdata{bib}
\bibcite{Marbey2021}{{1}{2021}{{Marbey \emph  {et~al.}}}{{Marbey, Kragskow, Buch, Nehrkorn, Ozerov, Piligkos, Hill, and Chilton}}}
\bibcite{Stevens1952}{{2}{1952}{{Stevens}}{{}}}
\bibcite{Mulak2000}{{3}{2000}{{Mulak and Gajek}}{{}}}
\bibcite{Eden1998}{{4}{1998}{{Eden and Levitt}}{{}}}
\@writefile{toc}{\contentsline {subsection}{\numberline {A.2}Equilibrium CFP file}{14}{subsection.A.2}\protected@file@percent }
\@writefile{toc}{\contentsline {subsection}{\numberline {A.3}Vibrational mode energies file}{14}{subsection.A.3}\protected@file@percent }
\@writefile{toc}{\contentsline {subsection}{\numberline {A.4}Equilibrium CF energies file}{14}{subsection.A.4}\protected@file@percent }
\gdef \@abspage@last{14}
